Chapter 3 Data Cleaning | Education Attainment in the US
…
other_race_list = list("Native.Hawaiian.and.Other.Pacific.Islander.alone", "American.Indian.or.Alaska.Native.alone", "Some.other.race.alone", "Two.or.more.races")
race <- combine_races(race, other_race_list)

# Make character values more descriptive and succinct as possible
# Need a note that: white means white alone does not count Hispanic or Latino
# Other races include: xxx
race <- abbreviate(race, race = TRUE,)

## Warning: Unknown levels in `f`: >= High School, >= Bachelor Degree

race

## # A tibble: 45 x 4
##    Gender Race                      Education                     Estimate
##    <chr>  <fct>                     <fct>                            <int>
##  1 Total  White Alone               Total                        144203068
##  2 Total  White Alone               High School or higher        134556337
##  3 Total  White Alone               >= Bachelor Degree or higher  53161917
##  4 Total  Hispanic or Latino Origin Total                         34949077
##  5 Total  Hispanic or Latino Origin High School or higher         24623646
##  6 Total  Hispanic or Latino Origin >= Bachelor Degree or higher   6164098
##  7 Total  Black Alone               Total                         27336967
##  8 Total  Black Alone               High School or higher         23799881
##  9 Total  Black Alone               >= Bachelor Degree or higher   6164066
## 10 Total  Asian Alone               Total                         13381406
## # … with 35 more rows

education <- read.csv("./data/2015-2019Education.csv", na.strings = "N/A")
education<-education %>% pivot_longer(cols = !Gender ,names_to = c("Year","Education"),
    names_sep = "_",
    values_to = "Estimate")
education$Year <- as.integer(gsub("X", "", education$Year))

# Make character values more descriptive and succinct as possible
education <- abbreviate(education)

## Warning: Unknown levels in `f`: < High School

education

## # A tibble: 50 x 4
##    Gender  Year Education             Estimate
##    <chr>  <int> <fct>                    <int>
##  1 Males   2015 Less Than High School 14181016
##  2 Males   2015 High School Graduate  29620517
##  3 Males   2015 Some Colleges         29027333
##  4 Males   2015 Bachelor Degree       19615278
##  5 Males   2015 Advanced Degree       12033250
##  6 Males   2016 Less Than High School 14016654
##  7 Males   2016 High School Graduate  29600138
##  8 Males   2016 Some Colleges         29340080
##  9 Males   2016 Bachelor Degree       20030807
## 10 Males   2016 Advanced Degree       12478805
## # … with 40 more rows

earning <- read.csv("./data/2015-2019earnings.csv", na.strings = "N/A")
earning<-earning %>% pivot_longer(cols = !Gender ,names_to = c("Year","Education"),
    names_sep = "_",
    values_to = "Earning")
earning$Year <- as.integer(gsub("X", "", earning$Year))
earning <- abbreviate(earning,total=TRUE)

## Warning: Unknown levels in `f`: < High School

earning

## # A tibble: 90 x 4
##    Gender  Year Education             Earning
##    <chr>  <int> <fct>                   <int>
##  1 Total   2015 Total                   36860
##  2 Total   2015 Less Than High School   21320
##  3 Total   2015 High School Graduate    29004
##  4 Total   2015 Some Colleges           34377
##  5 Total   2015 Bachelor Degree         50930
##  6 Total   2015 Advanced Degree         67286
##  7 Total   2016 Total                   37842
##  8 Total   2016 Less Than High School   21839
##  9 Total   2016 High School Graduate    29969
## 10 Total   2016 Some Colleges           35406
## # … with 80 more rows
